{
  "type": "service_account",
  "project_id": "nanassist-6ee04",
  "private_key_id": "ac80746d421db4e7ebdbaa676169327c5189a205",
  "private_key": "-----BEGIN PRIVATE KEY-----\nMIIEvQIBADANBgkqhkiG9w0BAQEFAASCBKcwggSjAgEAAoIBAQDiHIIjYmbhehZC\nJKqsWb87KKcPbNoqaWOhz/ZvIdLRef/duas+WYJWxRICqXSjReaK/KeLFE7u9idY\nz+j1M3FU2Q1KrwmO1sw8/uNRNkrQEkn0UQmoaSrbqMZbwYiS92wbvF09X3H2rKP6\n9BR+Z7KyBIesUh61fXbqmtNMajzVMKP66OMTLTAMMex41Ue2EjS5PTYwR68IKSl5\noSz1qzrk4y8F8btu+7h1977/KLuqFTrHlcgY2Jidi3oLznN5XHLJZKIMerdjl+qy\nPVuHPA1t48nE+RKUKwiVys/A2XVEu2tKOWMjl82LO0sxHLiR+eN5wK637gWh5Dfh\nMd6MazaJAgMBAAECggEAFMLcWiZjXumoWItoVmnpKqPpbvumLoW9vbJMJNkcs9o5\nWaD+LbvnQVNX+4GWsZUt/W4Ebjs/oiZc54UzlSwTiGBjnYtj28cyOpmGwsKy7Nb5\nDmNQeTOq2T9ucydahHAOb5+EiimU27rvVZAKv66C1GChGnvx0OVDwXfU1evdSQ/B\nmBAgyIpWcQB+NdOh5lTFsSWta0L7CoK1tr5WPoxexksEYY8CD1tJEo4LDOeqID2o\nqxxDEPctBJK12CYPIYDsAkibq4pxARMSVGHewxB/JbV3Hw5IlcjxzO+ulgLLWvv/\ncdUcaxAkTI6/m/7QO1PSU1tRot6YTO+8hM2qyfKaHwKBgQDxKCJFGX6fwhSZJozR\nNQZmhNU/2KSwtnFEXQ/wIsJZLnzH5ajdCb2YPHFCL7Yk/e3aEgGXUttgHA2Gu+0C\n6NZMc/Dn6EWtLNCn88/ESEpbMKk0fcadoXCYTEtsYXf55iDnkkYMkQSVlzgqPHJu\nuST8cC99uOvFua81toh1AS9a3wKBgQDwB052TBTr/zMpfQuIRGTz1klD1hPYlZWY\nmcoNwWCVMVXuc2rl0y3mHksNEw9V3OU/yoi3wFeKEhWjuIob8daDHEUUxabL/qlW\nCfQ17rgVpwcHWuttDbhkl8xIb1bfi6Qh1dWXGi1QTOG0VYm2Y27g/R4HZxnEuUJ/\nEepUDhQDlwKBgGRzxkqoQwGDE5dz4mZmwwLDRBzzPi7J4EaMyU3K/M+vOJT/yiZA\nn3QhgUADpcik6YXTyEvjXLQdG1lLQH/cwx9XkDrZmuR27Xd4bMwjHK39iA3wcmJI\n1CDsbuJ3e0ViIcS0Pm+PnKw/MEsPoM8UWh65EF87PyK+pQgnv5GVa8dbAoGAZbUS\n4DmY2+9FRJ1B17nzdQcmAGKkAjBQNVtlLLL2NAG1wdaSQ1RarJnFf4LGCsIROhie\nGg6ciVrkZH17uB+fn+rIsuaVqPb91gFdw8SlqDcgWVODUrBvo+BWpZLYIt1O7S9o\n1CA5dz88nGdqdShpAVj/8m8TkjJWJPX4bymP/X0CgYEAmfMI0zLW2ZWLPaRt7l7K\n1KO3dJ0H6z75etpiWOyfIC9rwmsLbvktyS5y9fghiGj/DcAaBo0ZI90aBTP6BvlW\n6FCqGdfAdAbzysUoWjAqoLQ12cxf0LGm4bi7hT58AluEtv5b7JN87ftSG4R314fl\nJ9tGfZJYPlTt1qvDNQKkizY=\n-----END PRIVATE KEY-----\n",
  "client_email": "firebase-adminsdk-y9sms@nanassist-6ee04.iam.gserviceaccount.com",
  "client_id": "117609567333535142712",
  "auth_uri": "https://accounts.google.com/o/oauth2/auth",
  "token_uri": "https://oauth2.googleapis.com/token",
  "auth_provider_x509_cert_url": "https://www.googleapis.com/oauth2/v1/certs",
  "client_x509_cert_url": "https://www.googleapis.com/robot/v1/metadata/x509/firebase-adminsdk-y9sms%40nanassist-6ee04.iam.gserviceaccount.com"
}
